(module WS2812B_WDS (layer F.Cu)
  (fp_text reference REF** (at 0 0) (layer F.SilkS)
    (effects (font (size 1 1) (thickness .15)))
  )
  (fp_text value WS2812B_WDS (at 0 0) (layer F.SilkS)
    (effects (font (size 1 1) (thickness .15)))
  )
  (fp_text user "Copyright 2021 Accelerated Designs. All rights reserved." (at 0 0) (layer Cmts.User)
    (effects (font (size .127 .127) (thickness .002)))
  )
  (fp_text user "*" (at -2.6924 -3.4153) (layer F.SilkS)
    (effects (font (size 1 1) (thickness .15)))
  )
  (fp_text user "*" (at -1.9304 -2.6406) (layer F.Fab)
    (effects (font (size 1 1) (thickness .15)))
  )
  (fp_text user "0.051in/1.295mm" (at -2.4384 -6.2103) (layer Cmts.User)
    (effects (font (size 1 1) (thickness .15)))
  )
  (fp_text user "0.13in/3.3mm" (at -5.4864 0) (layer Cmts.User)
    (effects (font (size 1 1) (thickness .15)))
  )
  (fp_text user "0.192in/4.877mm" (at 0 4.698) (layer Cmts.User)
    (effects (font (size 1 1) (thickness .15)))
  )
  (fp_text user "0.039in/0.991mm" (at 5.4864 -1.65) (layer Cmts.User)
    (effects (font (size 1 1) (thickness .15)))
  )
  (fp_text user "*" (at -1.9304 -2.6406) (layer F.Fab)
    (effects (font (size 1 1) (thickness .15)))
  )
  (fp_text user "*" (at -2.6924 -3.4153) (layer F.SilkS)
    (effects (font (size 1 1) (thickness .15)))
  )
  (fp_line (start -2.5273 -1.1801) (end -2.5273 -2.1199) (layer F.Fab) (width .1))
  (fp_line (start -2.5273 -2.1199) (end -2.7305 -2.1199) (layer F.Fab) (width .1))
  (fp_line (start -2.7305 -2.1199) (end -2.7305 -1.1801) (layer F.Fab) (width .1))
  (fp_line (start -2.7305 -1.1801) (end -2.5273 -1.1801) (layer F.Fab) (width .1))
  (fp_line (start -2.5273 2.1199) (end -2.5273 1.1801) (layer F.Fab) (width .1))
  (fp_line (start -2.5273 1.1801) (end -2.7305 1.1801) (layer F.Fab) (width .1))
  (fp_line (start -2.7305 1.1801) (end -2.7305 2.1199) (layer F.Fab) (width .1))
  (fp_line (start -2.7305 2.1199) (end -2.5273 2.1199) (layer F.Fab) (width .1))
  (fp_line (start 2.5273 1.1801) (end 2.5273 2.1199) (layer F.Fab) (width .1))
  (fp_line (start 2.5273 2.1199) (end 2.7305 2.1199) (layer F.Fab) (width .1))
  (fp_line (start 2.7305 2.1199) (end 2.7305 1.1801) (layer F.Fab) (width .1))
  (fp_line (start 2.7305 1.1801) (end 2.5273 1.1801) (layer F.Fab) (width .1))
  (fp_line (start 2.5273 -2.1199) (end 2.5273 -1.1801) (layer F.Fab) (width .1))
  (fp_line (start 2.5273 -1.1801) (end 2.7305 -1.1801) (layer F.Fab) (width .1))
  (fp_line (start 2.7305 -1.1801) (end 2.7305 -2.1199) (layer F.Fab) (width .1))
  (fp_line (start 2.7305 -2.1199) (end 2.5273 -2.1199) (layer F.Fab) (width .1))
  (fp_line (start -3.5941 2.158) (end -3.5941 -2.158) (layer F.CrtYd) (width .05))
  (fp_line (start -3.5941 -2.158) (end -2.7813 -2.158) (layer F.CrtYd) (width .05))
  (fp_line (start 3.5941 -2.158) (end 2.7813 -2.158) (layer F.CrtYd) (width .05))
  (fp_line (start 3.5941 -2.158) (end 3.5941 2.158) (layer F.CrtYd) (width .05))
  (fp_line (start 3.5941 2.158) (end 2.7813 2.158) (layer F.CrtYd) (width .05))
  (fp_line (start -3.5941 2.158) (end -2.7813 2.158) (layer F.CrtYd) (width .05))
  (fp_line (start -2.7813 -2.158) (end -2.7813 -2.7813) (layer F.CrtYd) (width .05))
  (fp_line (start -2.7813 -2.7813) (end 2.7813 -2.7813) (layer F.CrtYd) (width .05))
  (fp_line (start 2.7813 -2.7813) (end 2.7813 -2.158) (layer F.CrtYd) (width .05))
  (fp_line (start 2.7813 2.158) (end 2.7813 2.7813) (layer F.CrtYd) (width .05))
  (fp_line (start 2.7813 2.7813) (end -2.7813 2.7813) (layer F.CrtYd) (width .05))
  (fp_line (start -2.7813 2.7813) (end -2.7813 2.158) (layer F.CrtYd) (width .05))
  (fp_line (start -2.5273 0) (end -2.5273 -4.8133) (layer Cmts.User) (width 0))
  (fp_line (start 2.5273 0) (end 2.5273 -4.8133) (layer Cmts.User) (width 0))
  (fp_line (start -2.5273 -4.4323) (end 2.5273 -4.4323) (layer Cmts.User) (width 0))
  (fp_line (start -2.5273 -4.4323) (end -2.2733 -4.5593) (layer Cmts.User) (width 0))
  (fp_line (start -2.5273 -4.4323) (end -2.2733 -4.3053) (layer Cmts.User) (width 0))
  (fp_line (start -2.2733 -4.5593) (end -2.2733 -4.3053) (layer Cmts.User) (width 0))
  (fp_line (start 2.5273 -4.4323) (end 2.2733 -4.5593) (layer Cmts.User) (width 0))
  (fp_line (start 2.5273 -4.4323) (end 2.2733 -4.3053) (layer Cmts.User) (width 0))
  (fp_line (start 2.2733 -4.5593) (end 2.2733 -4.3053) (layer Cmts.User) (width 0))
  (fp_line (start -2.7305 0) (end -2.7305 -6.7183) (layer Cmts.User) (width 0))
  (fp_line (start 2.7305 0) (end 2.7305 -6.7183) (layer Cmts.User) (width 0))
  (fp_line (start -2.7305 -6.3373) (end 2.7305 -6.3373) (layer Cmts.User) (width 0))
  (fp_line (start -2.7305 -6.3373) (end -2.4765 -6.4643) (layer Cmts.User) (width 0))
  (fp_line (start -2.7305 -6.3373) (end -2.4765 -6.2103) (layer Cmts.User) (width 0))
  (fp_line (start -2.4765 -6.4643) (end -2.4765 -6.2103) (layer Cmts.User) (width 0))
  (fp_line (start 2.7305 -6.3373) (end 2.4765 -6.4643) (layer Cmts.User) (width 0))
  (fp_line (start 2.7305 -6.3373) (end 2.4765 -6.2103) (layer Cmts.User) (width 0))
  (fp_line (start 2.4765 -6.4643) (end 2.4765 -6.2103) (layer Cmts.User) (width 0))
  (fp_line (start 0 -2.5273) (end 5.4483 -2.5273) (layer Cmts.User) (width 0))
  (fp_line (start 0 2.5273) (end 5.4483 2.5273) (layer Cmts.User) (width 0))
  (fp_line (start 5.0673 -2.5273) (end 5.0673 2.5273) (layer Cmts.User) (width 0))
  (fp_line (start 5.0673 -2.5273) (end 4.9403 -2.2733) (layer Cmts.User) (width 0))
  (fp_line (start 5.0673 -2.5273) (end 5.1943 -2.2733) (layer Cmts.User) (width 0))
  (fp_line (start 4.9403 -2.2733) (end 5.1943 -2.2733) (layer Cmts.User) (width 0))
  (fp_line (start 5.0673 2.5273) (end 4.9403 2.2733) (layer Cmts.User) (width 0))
  (fp_line (start 5.0673 2.5273) (end 5.1943 2.2733) (layer Cmts.User) (width 0))
  (fp_line (start 4.9403 2.2733) (end 5.1943 2.2733) (layer Cmts.User) (width 0))
  (fp_line (start -2.4384 -1.65) (end -5.3594 -1.65) (layer Cmts.User) (width 0))
  (fp_line (start -2.4384 1.65) (end -5.3594 1.65) (layer Cmts.User) (width 0))
  (fp_line (start -4.9784 -1.65) (end -4.9784 -2.92) (layer Cmts.User) (width 0))
  (fp_line (start -4.9784 1.65) (end -4.9784 2.92) (layer Cmts.User) (width 0))
  (fp_line (start -4.9784 -1.65) (end -5.1054 -1.904) (layer Cmts.User) (width 0))
  (fp_line (start -4.9784 -1.65) (end -4.8514 -1.904) (layer Cmts.User) (width 0))
  (fp_line (start -5.1054 -1.904) (end -4.8514 -1.904) (layer Cmts.User) (width 0))
  (fp_line (start -4.9784 1.65) (end -5.1054 1.904) (layer Cmts.User) (width 0))
  (fp_line (start -4.9784 1.65) (end -4.8514 1.904) (layer Cmts.User) (width 0))
  (fp_line (start -5.1054 1.904) (end -4.8514 1.904) (layer Cmts.User) (width 0))
  (fp_line (start -2.7305 0) (end -2.7305 4.8133) (layer Cmts.User) (width 0))
  (fp_line (start -1.7907 0) (end -1.7907 4.8133) (layer Cmts.User) (width 0))
  (fp_line (start -2.7305 4.4323) (end -4.0005 4.4323) (layer Cmts.User) (width 0))
  (fp_line (start -1.7907 4.4323) (end -.5207 4.4323) (layer Cmts.User) (width 0))
  (fp_line (start -2.7305 4.4323) (end -2.9845 4.3053) (layer Cmts.User) (width 0))
  (fp_line (start -2.7305 4.4323) (end -2.9845 4.5593) (layer Cmts.User) (width 0))
  (fp_line (start -2.9845 4.3053) (end -2.9845 4.5593) (layer Cmts.User) (width 0))
  (fp_line (start -1.7907 4.4323) (end -1.5367 4.3053) (layer Cmts.User) (width 0))
  (fp_line (start -1.7907 4.4323) (end -1.5367 4.5593) (layer Cmts.User) (width 0))
  (fp_line (start -1.5367 4.3053) (end -1.5367 4.5593) (layer Cmts.User) (width 0))
  (fp_line (start -2.6543 2.6543) (end 2.6543 2.6543) (layer F.SilkS) (width .12))
  (fp_line (start 2.6543 .821959) (end 2.6543 -.821959) (layer F.SilkS) (width .12))
  (fp_line (start 2.6543 -2.6543) (end -2.6543 -2.6543) (layer F.SilkS) (width .12))
  (fp_line (start -2.6543 -.821959) (end -2.6543 .821959) (layer F.SilkS) (width .12))
  (fp_line (start -2.5273 2.5273) (end 2.5273 2.5273) (layer F.Fab) (width .1))
  (fp_line (start 2.5273 2.5273) (end 2.5273 -2.5273) (layer F.Fab) (width .1))
  (fp_line (start 2.5273 -2.5273) (end -2.5273 -2.5273) (layer F.Fab) (width .1))
  (fp_line (start -2.5273 -2.5273) (end -2.5273 2.5273) (layer F.Fab) (width .1))
  (fp_line (start -3.5941 2.158) (end -3.5941 -2.158) (layer F.CrtYd) (width .05))
  (fp_line (start -3.5941 -2.158) (end -2.7813 -2.158) (layer F.CrtYd) (width .05))
  (fp_line (start -2.7813 -2.158) (end -2.7813 -2.7813) (layer F.CrtYd) (width .05))
  (fp_line (start -2.7813 -2.7813) (end 2.7813 -2.7813) (layer F.CrtYd) (width .05))
  (fp_line (start 2.7813 -2.7813) (end 2.7813 -2.158) (layer F.CrtYd) (width .05))
  (fp_line (start 2.7813 -2.158) (end 3.5941 -2.158) (layer F.CrtYd) (width .05))
  (fp_line (start 3.5941 -2.158) (end 3.5941 2.158) (layer F.CrtYd) (width .05))
  (fp_line (start 3.5941 2.158) (end 2.7813 2.158) (layer F.CrtYd) (width .05))
  (fp_line (start 2.7813 2.158) (end 2.7813 2.7813) (layer F.CrtYd) (width .05))
  (fp_line (start 2.7813 2.7813) (end -2.7813 2.7813) (layer F.CrtYd) (width .05))
  (fp_line (start -2.7813 2.7813) (end -2.7813 2.158) (layer F.CrtYd) (width .05))
  (fp_line (start -2.7813 2.158) (end -3.5941 2.158) (layer F.CrtYd) (width .05))
  (fp_arc (start 0 -2.5273) (end -.3048 -2.5273) (angle -180)(layer F.Fab) (width .1))
  (pad 1 smd rect (at -2.4384 -1.649999) (size 1.2954 .9906) (layers F.Cu F.Paste F.Mask))
  (pad 2 smd rect (at -2.4384 1.649999) (size 1.2954 .9906) (layers F.Cu F.Paste F.Mask))
  (pad 3 smd rect (at 2.4384 1.649999) (size 1.2954 .9906) (layers F.Cu F.Paste F.Mask))
  (pad 4 smd rect (at 2.4384 -1.649999) (size 1.2954 .9906) (layers F.Cu F.Paste F.Mask))
)
