(module LED_R-G_1.7x1.5mm (layer F.Cu) (tedit 606B1CEE)
  (fp_text reference REF** (at 0.3 2.1) (layer F.SilkS)
    (effects (font (size 1 1) (thickness 0.15)))
  )
  (fp_text value LED_R-G_1.7x1.5mm (at -0.6 -2.3) (layer F.Fab)
    (effects (font (size 1 1) (thickness 0.15)))
  )
  (fp_line (start -0.79 -0.85) (end 1.21 -0.85) (layer F.SilkS) (width 0.15))
  (fp_line (start 1.21 -0.85) (end 1.21 0.45) (layer F.SilkS) (width 0.15))
  (fp_line (start 1.21 0.45) (end -0.79 0.45) (layer F.SilkS) (width 0.15))
  (fp_line (start -0.79 0.45) (end -0.79 -0.85) (layer F.SilkS) (width 0.15))
  (fp_line (start 0.09 -0.51) (end 0.09 0.19) (layer F.SilkS) (width 0.15))
  (fp_line (start 0.09 0.19) (end 0.49 -0.21) (layer F.SilkS) (width 0.15))
  (fp_line (start 0.49 -0.21) (end 0.19 -0.51) (layer F.SilkS) (width 0.15))
  (fp_line (start 0.19 -0.51) (end 0.09 -0.61) (layer F.SilkS) (width 0.15))
  (pad 3 smd rect (at 1.1 -0.7) (size 0.8 0.5) (layers F.Cu F.Paste F.Mask))
  (pad 1 smd rect (at 1.1 0.3) (size 0.8 0.5) (layers F.Cu F.Paste F.Mask))
  (pad 2 smd rect (at -0.7 0.3) (size 0.8 0.5) (layers F.Cu F.Paste F.Mask))
  (pad 4 smd rect (at -0.7 -0.7) (size 0.8 0.5) (layers F.Cu F.Paste F.Mask))
)
