(module MountingHole_1.2mm (layer F.Cu) (tedit 62A9DB4C)
  (descr "Mounting Hole 2.1mm, no annular")
  (tags "mounting hole 2.1mm no annular")
  (attr virtual)
  (fp_text reference REF** (at 0.21 -1.61) (layer F.SilkS)
    (effects (font (size 1 1) (thickness 0.15)))
  )
  (fp_text value MountingHole_1.2mm (at 0.05 1.65) (layer F.Fab)
    (effects (font (size 1 1) (thickness 0.15)))
  )
  (fp_circle (center 0 0) (end 0.9 0) (layer F.CrtYd) (width 0.05))
  (fp_circle (center 0 0) (end 0.75 0) (layer Cmts.User) (width 0.15))
  (fp_text user %R (at 0.3 0) (layer F.Fab)
    (effects (font (size 1 1) (thickness 0.15)))
  )
  (pad "" np_thru_hole circle (at 0 0) (size 1.3 1.3) (drill 1.3) (layers *.Cu *.Mask))
)
