(module RGB_Solder_Pads (layer F.Cu) (tedit 606E7595)
  (fp_text reference REF** (at 0.32 7.09) (layer F.SilkS)
    (effects (font (size 1 1) (thickness 0.15)))
  )
  (fp_text value RGB_Solder_Pads (at 0.43 -7.07) (layer F.Fab)
    (effects (font (size 1 1) (thickness 0.15)))
  )
  (fp_line (start 5.81 -6.07) (end -5.31 -6.06) (layer F.SilkS) (width 0.15))
  (fp_line (start -5.31 -6.06) (end -5.31 5.94) (layer F.SilkS) (width 0.15))
  (fp_line (start -5.31 5.94) (end 5.81 5.93) (layer F.SilkS) (width 0.15))
  (fp_line (start 5.81 5.93) (end 5.81 -6.07) (layer F.SilkS) (width 0.15))
  (pad 1 smd rect (at 0.27 -4.25) (size 11 3.5) (layers F.Cu F.Paste F.Mask))
  (pad 2 smd rect (at 0.25 -0.06) (size 11 2.5) (layers F.Cu F.Paste F.Mask))
  (pad 3 smd rect (at 0.29 4.1) (size 11 3.5) (layers F.Cu F.Paste F.Mask))
)
