(module SW-SMD-SPST-3.5x2.7 (layer F.Cu) (tedit 608E5C68)
  (fp_text reference REF** (at 0.18 2.56) (layer F.SilkS)
    (effects (font (size 1 1) (thickness 0.15)))
  )
  (fp_text value SW-SMD-SPST-3.5x2.7 (at 0.16 -2.65) (layer F.Fab)
    (effects (font (size 1 1) (thickness 0.15)))
  )
  (fp_line (start -1.22 -0.54) (end -1.22 -1.2) (layer F.SilkS) (width 0.15))
  (fp_line (start -1.92 -0.54) (end -1.22 -0.54) (layer F.SilkS) (width 0.15))
  (fp_line (start -1.93 -0.54) (end -1.93 0.49) (layer F.SilkS) (width 0.15))
  (fp_line (start 1.86 -0.61) (end 1.86 0.49) (layer F.SilkS) (width 0.15))
  (fp_line (start -1.22 -1.21) (end 1.23 -1.21) (layer F.SilkS) (width 0.15))
  (fp_line (start -1.28 1.12) (end 1.22 1.12) (layer F.SilkS) (width 0.15))
  (fp_circle (center 0.01 -0.01) (end 0.37 0.54) (layer F.Fab) (width 0.12))
  (pad 1 smd rect (at -1.59 -0.9) (size 0.625 0.575) (layers F.Cu F.Paste F.Mask))
  (pad 2 smd rect (at -1.59 0.78) (size 0.625 0.575) (layers F.Cu F.Paste F.Mask))
  (pad 3 smd rect (at 1.54 0.78) (size 0.625 0.575) (layers F.Cu F.Paste F.Mask))
  (pad 4 smd rect (at 1.54 -0.9) (size 0.625 0.575) (layers F.Cu F.Paste F.Mask))
  (pad 5 smd rect (at -1.72 -0.06) (size 0.325 0.7) (layers F.Cu F.Paste F.Mask))
  (pad 6 smd rect (at 1.69 -0.06) (size 0.325 0.7) (layers F.Cu F.Paste F.Mask))
)
