(module SW_mini_SMD-1 (layer F.Cu) (tedit 59C0DB06)
  (tags "SW Mini SPST Switch")
  (attr smd)
  (fp_text reference SW (at 0 2.54) (layer F.SilkS)
    (effects (font (size 1 1) (thickness 0.15)))
  )
  (fp_text value Switch (at 0 -2.54) (layer F.Fab)
    (effects (font (size 1 1) (thickness 0.15)))
  )
  (fp_text user %R (at 0 2.55) (layer F.Fab)
    (effects (font (size 1 1) (thickness 0.15)))
  )
  (fp_line (start -2 -1.2) (end 2 -1.2) (layer F.Fab) (width 0.1))
  (fp_line (start 2 -1.15) (end 2 1.15) (layer F.Fab) (width 0.1))
  (fp_line (start 2 1.2) (end -2 1.2) (layer F.Fab) (width 0.1))
  (fp_line (start -2 1.15) (end -2 -1.15) (layer F.Fab) (width 0.1))
  (fp_line (start 2.9 1.5) (end 2.9 -1.5) (layer F.CrtYd) (width 0.05))
  (fp_line (start 2.9 -1.5) (end -2.9 -1.5) (layer F.CrtYd) (width 0.05))
  (fp_line (start -2.9 -1.5) (end -2.9 1.5) (layer F.CrtYd) (width 0.05))
  (fp_line (start -2.9 1.5) (end 2.9 1.5) (layer F.CrtYd) (width 0.05))
  (fp_line (start -2.7 0.8) (end -2.7 1.3) (layer F.SilkS) (width 0.12))
  (fp_line (start -2.7 1.3) (end 2.7 1.3) (layer F.SilkS) (width 0.12))
  (fp_line (start 2.7 1.3) (end 2.7 0.8) (layer F.SilkS) (width 0.12))
  (fp_line (start 2.7 -0.8) (end 2.7 -1.3) (layer F.SilkS) (width 0.12))
  (fp_line (start 2.7 -1.3) (end -2.7 -1.3) (layer F.SilkS) (width 0.12))
  (fp_line (start -2.7 -1.3) (end -2.7 -0.8) (layer F.SilkS) (width 0.12))
  (pad 2 smd rect (at 2.2 0) (size 1.2 1.5) (layers F.Cu F.Paste F.Mask))
  (pad 1 smd rect (at -2.2 0) (size 1.2 1.5) (layers F.Cu F.Paste F.Mask))
)
