(module SW_SMD_SPDT_Top_Slide_7.8x3.8 (layer F.Cu) (tedit 608F4B8D)
  (descr "Ultraminiature Surface Mount Slide Switch, right-angle, https://www.ckswitches.com/media/1424/pcm.pdf")
  (attr smd)
  (fp_text reference REF** (at 0 -3.2) (layer F.SilkS)
    (effects (font (size 1 1) (thickness 0.15)))
  )
  (fp_text value SW_SPDT_Top_Slide (at 0 4.25) (layer F.Fab)
    (effects (font (size 1 1) (thickness 0.15)))
  )
  (fp_line (start 3.45 0.72) (end 3.45 -0.07) (layer F.SilkS) (width 0.12))
  (fp_line (start -3.45 -0.07) (end -3.45 0.72) (layer F.SilkS) (width 0.12))
  (fp_line (start -1.6 -1.12) (end 0.1 -1.12) (layer F.SilkS) (width 0.12))
  (fp_line (start -2.85 1.73) (end 2.85 1.73) (layer F.SilkS) (width 0.12))
  (fp_line (start -4.4 2.1) (end -4.4 -2.45) (layer F.CrtYd) (width 0.05))
  (fp_line (start -1.65 2.1) (end -4.4 2.1) (layer F.CrtYd) (width 0.05))
  (fp_line (start 1.65 2.1) (end -1.65 2.1) (layer F.CrtYd) (width 0.05))
  (fp_line (start 4.4 2.1) (end 1.65 2.1) (layer F.CrtYd) (width 0.05))
  (fp_line (start 4.4 -2.45) (end 4.4 2.1) (layer F.CrtYd) (width 0.05))
  (fp_line (start -4.4 -2.45) (end 4.4 -2.45) (layer F.CrtYd) (width 0.05))
  (fp_line (start 1.4 -1.12) (end 1.6 -1.12) (layer F.SilkS) (width 0.12))
  (fp_line (start 3.35 -1) (end -3.35 -1) (layer F.Fab) (width 0.1))
  (fp_line (start 3.35 1.6) (end 3.35 -1) (layer F.Fab) (width 0.1))
  (fp_line (start -3.35 1.6) (end 3.35 1.6) (layer F.Fab) (width 0.1))
  (fp_line (start -3.35 -1) (end -3.35 1.6) (layer F.Fab) (width 0.1))
  (fp_text user %R (at 0 -3.2) (layer F.Fab)
    (effects (font (size 1 1) (thickness 0.15)))
  )
  (fp_line (start 0.03 -0.28) (end 0.03 1.04) (layer F.SilkS) (width 0.15))
  (fp_line (start 0.03 1.04) (end 1.26 1.04) (layer F.SilkS) (width 0.15))
  (fp_line (start 1.26 1.04) (end 1.26 -0.28) (layer F.SilkS) (width 0.15))
  (fp_line (start 1.26 -0.28) (end 0.03 -0.28) (layer F.SilkS) (width 0.15))
  (pad "" np_thru_hole circle (at -1.5 0.33) (size 0.9 0.9) (drill 0.9) (layers *.Cu *.Mask))
  (pad "" np_thru_hole circle (at 1.5 0.33) (size 0.9 0.9) (drill 0.9) (layers *.Cu *.Mask))
  (pad 1 smd rect (at -2.25 -1.43) (size 0.7 1.5) (layers F.Cu F.Paste F.Mask))
  (pad 2 smd rect (at 0.75 -1.43) (size 0.7 1.5) (layers F.Cu F.Paste F.Mask))
  (pad 3 smd rect (at 2.25 -1.43) (size 0.7 1.5) (layers F.Cu F.Paste F.Mask))
  (pad "" smd rect (at -3.65 1.43) (size 1 0.8) (layers F.Cu F.Paste F.Mask))
  (pad "" smd rect (at 3.65 1.43) (size 1 0.8) (layers F.Cu F.Paste F.Mask))
  (pad "" smd rect (at 3.65 -0.78) (size 1 0.8) (layers F.Cu F.Paste F.Mask))
  (pad "" smd rect (at -3.65 -0.78) (size 1 0.8) (layers F.Cu F.Paste F.Mask))
  (model ${KISYS3DMOD}/Button_Switch_SMD.3dshapes/SW_SPDT_PCM12.wrl
    (at (xyz 0 0 0))
    (scale (xyz 1 1 1))
    (rotate (xyz 0 0 0))
  )
)
