(module SMD_Switch_SZ_3-Pole (layer F.Cu) (tedit 58BD64ED)
  (fp_text reference REF** (at -3.2 4) (layer F.SilkS)
    (effects (font (size 1 1) (thickness 0.15)))
  )
  (fp_text value SMD_Switch_SZ_3-Pole (at 0 -3.4) (layer F.Fab)
    (effects (font (size 1 1) (thickness 0.15)))
  )
  (fp_line (start 0.7 3) (end 0.7 3.1) (layer F.Paste) (width 0.15))
  (fp_line (start 0.5 3) (end 0.5 3.1) (layer B.SilkS) (width 0.15))
  (fp_line (start 0.5 3.1) (end 0.6 3.1) (layer B.SilkS) (width 0.15))
  (fp_line (start 0.6 3.1) (end 0.7 3) (layer B.SilkS) (width 0.15))
  (fp_line (start 0.7 3) (end 0.6 3) (layer B.SilkS) (width 0.15))
  (fp_line (start 0.6 3) (end 0.5 3) (layer B.SilkS) (width 0.15))
  (fp_line (start 8.2 3) (end 8.2 3.1) (layer B.SilkS) (width 0.15))
  (fp_line (start 8.2 3.1) (end 8 3.1) (layer B.SilkS) (width 0.15))
  (fp_line (start 8 3.1) (end 8 3) (layer B.SilkS) (width 0.15))
  (fp_line (start 8 3) (end 8.2 3) (layer B.SilkS) (width 0.15))
  (fp_line (start 8.2 3) (end 8.1 3) (layer B.SilkS) (width 0.15))
  (fp_line (start 1 3) (end 1 5) (layer F.SilkS) (width 0.15))
  (fp_line (start 1 5) (end 2.6 5) (layer F.SilkS) (width 0.15))
  (fp_line (start 2.6 5) (end 2.6 3) (layer F.SilkS) (width 0.15))
  (fp_line (start 0 0) (end 8.7 0) (layer F.SilkS) (width 0.15))
  (fp_line (start 8.7 0) (end 8.7 3) (layer F.SilkS) (width 0.15))
  (fp_line (start 8.7 3) (end 0 3) (layer F.SilkS) (width 0.15))
  (fp_line (start 0 3) (end 0 0) (layer F.SilkS) (width 0.15))
  (pad 1 smd rect (at 1.5 -1) (size 0.6 2) (layers F.Cu F.Paste F.Mask))
  (pad 2 smd rect (at 3.5 -1) (size 0.6 2) (layers F.Cu F.Paste F.Mask))
  (pad 3 smd rect (at 5.5 -1) (size 0.6 2) (layers F.Cu F.Paste F.Mask))
)
