(module SMD_Switch_8x3.6 (layer F.Cu) (tedit 5E7EF462)
  (tags "SW Mini SPST Switch")
  (attr smd)
  (fp_text reference SW2 (at -0.1 -2.6) (layer F.SilkS)
    (effects (font (size 1 1) (thickness 0.15)))
  )
  (fp_text value SW_Push (at 0.1 2.8) (layer F.Fab)
    (effects (font (size 1 1) (thickness 0.15)))
  )
  (fp_line (start -3 -1.8) (end -3 -1.1) (layer F.SilkS) (width 0.12))
  (fp_line (start 3 -1.8) (end -3 -1.8) (layer F.SilkS) (width 0.12))
  (fp_line (start 3 -1.1) (end 3 -1.8) (layer F.SilkS) (width 0.12))
  (fp_line (start 3 1.8) (end 3 1.1) (layer F.SilkS) (width 0.12))
  (fp_line (start -3 1.8) (end 3 1.8) (layer F.SilkS) (width 0.12))
  (fp_line (start -3 1.1) (end -3 1.8) (layer F.SilkS) (width 0.12))
  (fp_line (start -4.6 2) (end 4.6 2) (layer F.CrtYd) (width 0.05))
  (fp_line (start -4.6 -2) (end -4.6 2) (layer F.CrtYd) (width 0.05))
  (fp_line (start 4.6 -2) (end -4.6 -2) (layer F.CrtYd) (width 0.05))
  (fp_line (start 4.6 2) (end 4.6 -2) (layer F.CrtYd) (width 0.05))
  (fp_line (start -2 1.15) (end -2 -1.15) (layer F.Fab) (width 0.1))
  (fp_line (start 2 1.2) (end -2 1.2) (layer F.Fab) (width 0.1))
  (fp_line (start 2 -1.15) (end 2 1.15) (layer F.Fab) (width 0.1))
  (fp_line (start -2 -1.2) (end 2 -1.2) (layer F.Fab) (width 0.1))
  (fp_text user %R (at -0.1 -2.6) (layer F.Fab)
    (effects (font (size 1 1) (thickness 0.15)))
  )
  (fp_line (start 2 -1.15) (end 1.6 -0.75) (layer F.Fab) (width 0.12))
  (fp_line (start 2 1.15) (end 1.6 0.75) (layer F.Fab) (width 0.12))
  (fp_line (start -2 -1.2) (end -1.6 -0.8) (layer F.Fab) (width 0.12))
  (fp_line (start -2 1.2) (end -1.6 0.8) (layer F.Fab) (width 0.12))
  (fp_line (start -0.7 -0.2) (end -0.7 0.2) (layer F.Fab) (width 0.12))
  (fp_line (start -0.7 0.2) (end 0.7 0.2) (layer F.Fab) (width 0.12))
  (fp_line (start 0.7 0.2) (end 0.7 -0.2) (layer F.Fab) (width 0.12))
  (fp_line (start 0.7 -0.2) (end -0.7 -0.2) (layer F.Fab) (width 0.12))
  (fp_line (start -1.6 -0.8) (end -1.6 0.8) (layer F.Fab) (width 0.12))
  (fp_line (start -1.6 0.8) (end 1.6 0.8) (layer F.Fab) (width 0.12))
  (fp_line (start 1.6 0.8) (end 1.6 -0.8) (layer F.Fab) (width 0.12))
  (fp_line (start 1.6 -0.8) (end -1.6 -0.8) (layer F.Fab) (width 0.12))
  (pad 1 smd rect (at -3.8 0) (size 1.6 2) (layers F.Cu F.Paste F.Mask))
  (pad 2 smd rect (at 3.8 0) (size 1.6 2) (layers F.Cu F.Paste F.Mask))
)
